#region Private Variables
        #endregion

        #region Public Variables
        #endregion

        #region Properties
        #endregion

        #region Constructors
        #endregion

        #region Behaviour Callbacks
        #endregion

        #region Private Methods
        #endregion

        #region Public Methods
        #endregion